temp/microprocessor.vcd
$date
	Fri Jan 31 13:52:36 2025
$end
$version
	Icarus Verilog
$end
$timescale
	1ps
$end
$scope module microprocessor_tb $end
$var reg 1 ! clk $end
$var reg 32 " instruction [31:0] $end
$var reg 1 # rst $end
$scope module u_microprocessor0 $end
$var wire 1 ! clk $end
$var wire 32 $ instruction [31:0] $end
$var wire 1 # rst $end
$var wire 32 % store_data [31:0] $end
$var wire 32 & pc_address [31:0] $end
$var wire 4 ' mask [3:0] $end
$var wire 1 ( load_signal $end
$var wire 32 ) load_data_out [31:0] $end
$var wire 1 * instruction_mem_we_re $end
$var wire 1 + instruction_mem_request $end
$var wire 32 , instruction_data [31:0] $end
$var wire 1 - instruc_mem_valid $end
$var wire 4 . instruc_mask_singal [3:0] $end
$var wire 1 / data_mem_we_re $end
$var wire 1 0 data_mem_valid $end
$var wire 1 1 data_mem_request $end
$var wire 32 2 alu_out_address [31:0] $end
$scope module u_core $end
$var wire 32 3 alu_out_address [31:0] $end
$var wire 1 ! clk $end
$var wire 1 ( load_signal $end
$var wire 4 4 mask_singal [3:0] $end
$var wire 1 # rst $end
$var wire 32 5 wrap_load_wb [31:0] $end
$var wire 32 6 wrap_load_memstage [31:0] $end
$var wire 1 7 store_memstage $end
$var wire 1 8 store_execute $end
$var wire 1 9 store_decode $end
$var wire 32 : store_data_out [31:0] $end
$var wire 5 ; rs2_execute [4:0] $end
$var wire 5 < rs2_decode [4:0] $end
$var wire 5 = rs1_execute [4:0] $end
$var wire 5 > rs1_decode [4:0] $end
$var wire 1 ? reg_write_wb $end
$var wire 1 @ reg_write_memstage $end
$var wire 1 A reg_write_execute $end
$var wire 1 B reg_write_decode $end
$var wire 32 C rd_wb_data [31:0] $end
$var wire 5 D rd_memstage [4:0] $end
$var wire 32 E pre_pc_addr_wb [31:0] $end
$var wire 32 F pre_pc_addr_memstage [31:0] $end
$var wire 32 G pre_pc_addr_fetch [31:0] $end
$var wire 32 H pre_pc_addr_execute [31:0] $end
$var wire 32 I pre_pc_addr_decode [31:0] $end
$var wire 32 J pc_address [31:0] $end
$var wire 32 K opb_mux_out_execute [31:0] $end
$var wire 32 L opb_mux_out_decode [31:0] $end
$var wire 32 M opa_mux_out_execute [31:0] $end
$var wire 32 N opa_mux_out_decode [31:0] $end
$var wire 32 O op_b_memstage [31:0] $end
$var wire 32 P op_b_execute [31:0] $end
$var wire 32 Q op_b_decode [31:0] $end
$var wire 1 R next_sel_execute $end
$var wire 1 S next_sel_decode $end
$var wire 32 T next_sel_address_wb [31:0] $end
$var wire 32 U next_sel_address_memstage [31:0] $end
$var wire 32 V next_sel_address_execute [31:0] $end
$var wire 2 W mem_to_reg_wb [1:0] $end
$var wire 2 X mem_to_reg_memstage [1:0] $end
$var wire 2 Y mem_to_reg_execute [1:0] $end
$var wire 2 Z mem_to_reg_decode [1:0] $end
$var wire 4 [ mask [3:0] $end
$var wire 1 \ load_memstage $end
$var wire 1 ] load_execute $end
$var wire 1 ^ load_decode $end
$var wire 32 _ load_data_in [31:0] $end
$var wire 1 ` jalr_execute $end
$var wire 1 a jalr_decode $end
$var wire 32 b instruction_wb [31:0] $end
$var wire 32 c instruction_memstage [31:0] $end
$var wire 1 * instruction_mem_we_re $end
$var wire 1 + instruction_mem_request $end
$var wire 32 d instruction_fetch [31:0] $end
$var wire 32 e instruction_execute [31:0] $end
$var wire 32 f instruction_decode [31:0] $end
$var wire 32 g instruction [31:0] $end
$var wire 1 - instruc_mem_valid $end
$var wire 4 h instruc_mask_singal [3:0] $end
$var wire 1 / data_mem_we_re $end
$var wire 1 0 data_mem_valid $end
$var wire 1 1 data_mem_request $end
$var wire 1 i branch_result_execute $end
$var wire 1 j branch_result_decode $end
$var wire 32 k alu_res_out_wb [31:0] $end
$var wire 32 l alu_res_out_memstage [31:0] $end
$var wire 32 m alu_res_out_execute [31:0] $end
$var wire 32 n alu_in_b [31:0] $end
$var wire 32 o alu_in_a [31:0] $end
$var wire 4 p alu_control_execute [3:0] $end
$var wire 4 q alu_control_decode [3:0] $end
$scope module u_decodepipeline $end
$var wire 4 r alu_control [3:0] $end
$var wire 1 i branch_result $end
$var wire 1 ! clk $end
$var wire 32 s instruction_out [31:0] $end
$var wire 1 ` jalr_out $end
$var wire 1 ] load $end
$var wire 2 t mem_to_reg [1:0] $end
$var wire 1 R next_sel $end
$var wire 32 u opa_mux_out [31:0] $end
$var wire 32 v opb_data_out [31:0] $end
$var wire 32 w opb_mux_out [31:0] $end
$var wire 32 x pre_address_out [31:0] $end
$var wire 1 A reg_write_out $end
$var wire 5 y rs1_out [4:0] $end
$var wire 5 z rs2_out [4:0] $end
$var wire 1 # rst $end
$var wire 1 8 store $end
$var wire 1 9 store_in $end
$var wire 5 { rs2_in [4:0] $end
$var wire 5 | rs1_in [4:0] $end
$var wire 1 B reg_write_in $end
$var wire 32 } pre_address_in [31:0] $end
$var wire 32 ~ opb_mux_in [31:0] $end
$var wire 32 !" opb_data_in [31:0] $end
$var wire 32 "" opa_mux_in [31:0] $end
$var wire 1 S next_sel_in $end
$var wire 2 #" mem_to_reg_in [1:0] $end
$var wire 1 ^ load_in $end
$var wire 1 a jalr_in $end
$var wire 32 $" instruction_in [31:0] $end
$var wire 1 j branch_result_in $end
$var wire 4 %" alu_control_in [3:0] $end
$var reg 4 &" alu_con [3:0] $end
$var reg 1 '" branch_res $end
$var reg 32 (" instruction [31:0] $end
$var reg 1 )" jalr $end
$var reg 1 *" l $end
$var reg 2 +" mem_reg [1:0] $end
$var reg 1 ," nextsel $end
$var reg 32 -" opa_mux [31:0] $end
$var reg 32 ." opb_data [31:0] $end
$var reg 32 /" opb_mux [31:0] $end
$var reg 32 0" pre_address [31:0] $end
$var reg 1 1" reg_write $end
$var reg 5 2" rs1 [4:0] $end
$var reg 5 3" rs2 [4:0] $end
$var reg 1 4" s $end
$upscope $end
$scope module u_decodestage $end
$var wire 1 ! clk $end
$var wire 1 ] load_control_signal $end
$var wire 32 5" opb_data [31:0] $end
$var wire 1 # rst $end
$var wire 1 0 valid $end
$var wire 32 6" uj_immo [31:0] $end
$var wire 32 7" u_immo [31:0] $end
$var wire 1 9 store $end
$var wire 32 8" sb_immo [31:0] $end
$var wire 32 9" s_immo [31:0] $end
$var wire 5 :" rs2 [4:0] $end
$var wire 5 ;" rs1 [4:0] $end
$var wire 1 B reg_write_en_out $end
$var wire 1 ? reg_write_en_in $end
$var wire 32 <" rd_wb_data [31:0] $end
$var wire 32 =" pc_address [31:0] $end
$var wire 1 >" operand_b $end
$var wire 1 ?" operand_a $end
$var wire 32 @" opb_mux_out [31:0] $end
$var wire 32 A" opa_mux_out [31:0] $end
$var wire 32 B" op_b [31:0] $end
$var wire 32 C" op_a [31:0] $end
$var wire 1 S next_sel $end
$var wire 2 D" mem_to_reg [1:0] $end
$var wire 1 ^ load $end
$var wire 1 a jalr $end
$var wire 32 E" instruction_rd [31:0] $end
$var wire 32 F" instruction [31:0] $end
$var wire 3 G" imm_sel [2:0] $end
$var wire 32 H" imm_mux_out [31:0] $end
$var wire 32 I" i_immo [31:0] $end
$var wire 1 j branch_result $end
$var wire 1 J" branch $end
$var wire 4 K" alu_control [3:0] $end
$scope module u_branch0 $end
$var wire 3 L" fun3 [2:0] $end
$var wire 32 M" op_b [31:0] $end
$var wire 32 N" op_a [31:0] $end
$var wire 1 J" en $end
$var reg 1 j result $end
$upscope $end
$scope module u_cu0 $end
$var wire 3 O" fun3 [2:0] $end
$var wire 1 P" fun7 $end
$var wire 1 ] load_control $end
$var wire 7 Q" opcode [6:0] $end
$var wire 1 0 valid $end
$var wire 1 R" store $end
$var wire 1 B reg_write $end
$var wire 1 S" r_type $end
$var wire 1 >" operand_b $end
$var wire 1 ?" operand_a $end
$var wire 1 S next_sel $end
$var wire 2 T" mem_to_reg [1:0] $end
$var wire 1 U" mem_en $end
$var wire 1 V" lui $end
$var wire 1 W" load $end
$var wire 1 a jalr_out $end
$var wire 1 X" jalr $end
$var wire 1 Y" jal $end
$var wire 3 Z" imm_sel [2:0] $end
$var wire 1 [" i_type $end
$var wire 1 \" branch $end
$var wire 1 ]" auipc $end
$var wire 4 ^" alu_control [3:0] $end
$var wire 1 9 Store $end
$var wire 1 ^ Load $end
$var wire 1 J" Branch $end
$scope module u_controldec0 $end
$var wire 3 _" fun3 [2:0] $end
$var wire 1 P" fun7 $end
$var wire 1 ] load_control $end
$var wire 1 R" store $end
$var wire 1 S" r_type $end
$var wire 1 V" lui $end
$var wire 1 W" load $end
$var wire 1 X" jalr $end
$var wire 1 Y" jal $end
$var wire 1 [" i_type $end
$var wire 1 \" branch $end
$var wire 1 ]" auipc $end
$var reg 1 J" Branch $end
$var reg 1 ^ Load $end
$var reg 1 9 Store $end
$var reg 4 `" alu_control [3:0] $end
$var reg 3 a" imm_sel [2:0] $end
$var reg 1 a jalr_out $end
$var reg 1 U" mem_en $end
$var reg 2 b" mem_to_reg [1:0] $end
$var reg 1 S next_sel $end
$var reg 1 ?" operand_a $end
$var reg 1 >" operand_b $end
$var reg 1 B reg_write $end
$upscope $end
$scope module u_typedec0 $end
$var wire 1 ] load_signal_controller $end
$var wire 7 c" opcode [6:0] $end
$var wire 1 0 valid $end
$var reg 1 ]" auipc $end
$var reg 1 \" branch $end
$var reg 1 [" i_type $end
$var reg 1 Y" jal $end
$var reg 1 X" jalr $end
$var reg 1 W" load $end
$var reg 1 V" lui $end
$var reg 1 S" r_type $end
$var reg 1 R" store $end
$upscope $end
$upscope $end
$scope module u_imm_gen0 $end
$var wire 32 d" instr [31:0] $end
$var reg 32 e" i_imme [31:0] $end
$var reg 32 f" s_imme [31:0] $end
$var reg 32 g" sb_imme [31:0] $end
$var reg 32 h" u_imme [31:0] $end
$var reg 32 i" uj_imme [31:0] $end
$upscope $end
$scope module u_mux0 $end
$var wire 32 j" a [31:0] $end
$var wire 32 k" b [31:0] $end
$var wire 32 l" c [31:0] $end
$var wire 32 m" d [31:0] $end
$var wire 32 n" e [31:0] $end
$var wire 32 o" f [31:0] $end
$var wire 32 p" g [31:0] $end
$var wire 32 q" h [31:0] $end
$var wire 3 r" sel [2:0] $end
$var reg 32 s" out [31:0] $end
$upscope $end
$scope module u_mux1 $end
$var wire 1 ?" sel $end
$var wire 32 t" out [31:0] $end
$var wire 32 u" b [31:0] $end
$var wire 32 v" a [31:0] $end
$upscope $end
$scope module u_mux2 $end
$var wire 32 w" b [31:0] $end
$var wire 1 >" sel $end
$var wire 32 x" out [31:0] $end
$var wire 32 y" a [31:0] $end
$upscope $end
$scope module u_regfile0 $end
$var wire 1 ! clk $end
$var wire 5 z" rd [4:0] $end
$var wire 5 {" rs1 [4:0] $end
$var wire 5 |" rs2 [4:0] $end
$var wire 1 # rst $end
$var wire 32 }" op_b [31:0] $end
$var wire 32 ~" op_a [31:0] $end
$var wire 1 ? en $end
$var wire 32 !# data [31:0] $end
$var integer 32 "# i [31:0] $end
$upscope $end
$upscope $end
$scope module u_executepipeline $end
$var wire 1 ! clk $end
$var wire 32 ## instruction_in [31:0] $end
$var wire 32 $# instruction_out [31:0] $end
$var wire 1 ] load_in $end
$var wire 1 \ load_out $end
$var wire 2 %# mem_reg_in [1:0] $end
$var wire 2 &# mem_reg_out [1:0] $end
$var wire 32 '# next_sel_address [31:0] $end
$var wire 32 (# opb_datain [31:0] $end
$var wire 32 )# opb_dataout [31:0] $end
$var wire 32 *# pre_address_in [31:0] $end
$var wire 32 +# pre_address_out [31:0] $end
$var wire 1 A reg_write_in $end
$var wire 1 @ reg_write_out $end
$var wire 1 # rst $end
$var wire 1 8 store_in $end
$var wire 1 7 store_out $end
$var wire 32 ,# next_sel_addr [31:0] $end
$var wire 32 -# alu_res_out [31:0] $end
$var wire 32 .# alu_res [31:0] $end
$var reg 32 /# alu_result [31:0] $end
$var reg 32 0# instruction [31:0] $end
$var reg 1 \ load $end
$var reg 2 1# mem_reg [1:0] $end
$var reg 32 2# nextsel_addr [31:0] $end
$var reg 32 3# opb_data [31:0] $end
$var reg 32 4# pre_address [31:0] $end
$var reg 1 5# reg_write $end
$var reg 1 6# store $end
$upscope $end
$scope module u_executestage $end
$var wire 32 7# a_i [31:0] $end
$var wire 4 8# alu_control [3:0] $end
$var wire 32 9# b_i [31:0] $end
$var wire 32 :# pc_address [31:0] $end
$var wire 32 ;# next_sel_address [31:0] $end
$var wire 32 <# alu_res_out [31:0] $end
$scope module u_adder0 $end
$var wire 32 =# a [31:0] $end
$var reg 32 ># adder_out [31:0] $end
$upscope $end
$scope module u_alu0 $end
$var wire 32 ?# a_i [31:0] $end
$var wire 32 @# b_i [31:0] $end
$var wire 4 A# op_i [3:0] $end
$var reg 32 B# res_o [31:0] $end
$upscope $end
$upscope $end
$scope module u_fetchpipeline $end
$var wire 1 j branch_result $end
$var wire 1 ! clk $end
$var wire 32 C# instruction [31:0] $end
$var wire 1 a jalr $end
$var wire 1 ^ load $end
$var wire 1 S next_select $end
$var wire 32 D# pre_address_out [31:0] $end
$var wire 1 # rst $end
$var wire 32 E# pre_address_pc [31:0] $end
$var wire 32 F# instruction_fetch [31:0] $end
$var reg 1 G# flush_pipeline $end
$var reg 1 H# flush_pipeline2 $end
$var reg 32 I# instruc [31:0] $end
$var reg 32 J# pre_address [31:0] $end
$upscope $end
$scope module u_fetchstage $end
$var wire 32 K# address_in [31:0] $end
$var wire 1 i branch_reselt $end
$var wire 1 ! clk $end
$var wire 1 ` jalr $end
$var wire 1 ^ load $end
$var wire 32 L# next_address [31:0] $end
$var wire 1 R next_sel $end
$var wire 1 # rst $end
$var wire 1 0 valid $end
$var wire 32 M# pre_address_pc [31:0] $end
$var wire 32 N# instruction_fetch [31:0] $end
$var wire 32 O# address_out [31:0] $end
$var reg 32 P# instruction [31:0] $end
$var reg 4 Q# mask [3:0] $end
$var reg 1 + request $end
$var reg 1 * we_re $end
$scope module u_pc0 $end
$var wire 32 R# address_in [31:0] $end
$var wire 1 i branch_reselt $end
$var wire 1 ! clk $end
$var wire 1 ` jalr $end
$var wire 1 ^ load $end
$var wire 32 S# next_address [31:0] $end
$var wire 1 R next_sel $end
$var wire 32 T# pre_address_pc [31:0] $end
$var wire 1 # rst $end
$var wire 1 0 dmem_valid $end
$var reg 32 U# address_out [31:0] $end
$var reg 32 V# pre_address [31:0] $end
$upscope $end
$upscope $end
$scope module u_memorystage $end
$var wire 32 W# alu_out_address [31:0] $end
$var wire 32 X# instruction [31:0] $end
$var wire 1 \ load $end
$var wire 32 Y# op_b [31:0] $end
$var wire 1 # rst $end
$var wire 1 7 store $end
$var wire 32 Z# wrap_load_out [31:0] $end
$var wire 32 [# wrap_load_in [31:0] $end
$var wire 1 - valid $end
$var wire 32 \# store_data_out [31:0] $end
$var wire 4 ]# mask [3:0] $end
$var wire 1 0 data_valid $end
$var reg 1 1 request $end
$var reg 1 / we_re $end
$scope module u_wrap_mem0 $end
$var wire 1 \ Load $end
$var wire 2 ^# byteadd [1:0] $end
$var wire 32 _# data_i [31:0] $end
$var wire 3 `# fun3 [2:0] $end
$var wire 1 7 mem_en $end
$var wire 32 a# wrap_load_in [31:0] $end
$var wire 1 0 data_valid $end
$var reg 32 b# data_o [31:0] $end
$var reg 4 c# masking [3:0] $end
$var reg 32 d# wrap_load_out [31:0] $end
$upscope $end
$upscope $end
$scope module u_memstagepipeline $end
$var wire 32 e# alu_res [31:0] $end
$var wire 32 f# alu_res_out [31:0] $end
$var wire 1 ! clk $end
$var wire 32 g# instruction_in [31:0] $end
$var wire 32 h# instruction_out [31:0] $end
$var wire 2 i# mem_reg_in [1:0] $end
$var wire 2 j# mem_reg_out [1:0] $end
$var wire 32 k# next_sel_addr [31:0] $end
$var wire 32 l# next_sel_address [31:0] $end
$var wire 32 m# pre_address_in [31:0] $end
$var wire 32 n# pre_address_out [31:0] $end
$var wire 1 @ reg_write_in $end
$var wire 1 ? reg_write_out $end
$var wire 1 o# rst $end
$var wire 32 p# wrap_load_in [31:0] $end
$var wire 32 q# wrap_load_out [31:0] $end
$var reg 32 r# alu_result [31:0] $end
$var reg 32 s# instruction [31:0] $end
$var reg 2 t# mem_reg [1:0] $end
$var reg 32 u# nextsel_addr [31:0] $end
$var reg 32 v# pre_address_pc [31:0] $end
$var reg 1 w# reg_write $end
$var reg 32 x# wrap_load [31:0] $end
$upscope $end
$scope module u_wbstage $end
$var wire 32 y# alu_out [31:0] $end
$var wire 32 z# data_mem_out [31:0] $end
$var wire 2 {# mem_to_reg [1:0] $end
$var wire 32 |# next_sel_address [31:0] $end
$var wire 32 }# rd_sel_mux_out [31:0] $end
$scope module u_mux2 $end
$var wire 32 ~# a [31:0] $end
$var wire 32 !$ b [31:0] $end
$var wire 32 "$ c [31:0] $end
$var wire 32 #$ d [31:0] $end
$var wire 2 $$ sel [1:0] $end
$var reg 32 %$ out [31:0] $end
$upscope $end
$upscope $end
$upscope $end
$scope module u_data_memory $end
$var wire 8 &$ address [7:0] $end
$var wire 1 ! clk $end
$var wire 32 '$ data_in [31:0] $end
$var wire 1 ( load $end
$var wire 4 ($ mask [3:0] $end
$var wire 1 1 request $end
$var wire 1 # rst $end
$var wire 1 / we_re $end
$var wire 32 )$ data_out [31:0] $end
$var reg 1 0 valid $end
$scope module u_memory $end
$var wire 8 *$ address [7:0] $end
$var wire 1 ! clk $end
$var wire 32 +$ data_in [31:0] $end
$var wire 4 ,$ mask [3:0] $end
$var wire 1 1 request $end
$var wire 1 / we_re $end
$var reg 32 -$ data_out [31:0] $end
$upscope $end
$upscope $end
$scope module u_instruction_memory $end
$var wire 8 .$ address [7:0] $end
$var wire 1 ! clk $end
$var wire 32 /$ data_in [31:0] $end
$var wire 4 0$ mask [3:0] $end
$var wire 1 + request $end
$var wire 1 # rst $end
$var wire 1 * we_re $end
$var wire 32 1$ data_out [31:0] $end
$var reg 1 - valid $end
$scope module u_memory $end
$var wire 8 2$ address [7:0] $end
$var wire 1 ! clk $end
$var wire 32 3$ data_in [31:0] $end
$var wire 4 4$ mask [3:0] $end
$var wire 1 + request $end
$var wire 1 * we_re $end
$var reg 32 5$ data_out [31:0] $end
$upscope $end
$upscope $end
$upscope $end
$upscope $end
$enddefinitions $end
#0
$dumpvars
bx 5$
bx 4$
bx 3$
bx 2$
bx 1$
bx 0$
bx /$
bx .$
bx -$
bx ,$
bx +$
bx *$
bx )$
bx ($
bx '$
bx &$
bx %$
bx $$
bz #$
bx "$
bx !$
bx ~#
bx }#
bx |#
bx {#
bx z#
bx y#
bx x#
xw#
bx v#
bx u#
bx t#
bx s#
bx r#
bx q#
bx p#
zo#
bx n#
bx m#
bx l#
bx k#
bx j#
bx i#
bx h#
bx g#
bx f#
bx e#
bx d#
bx c#
bx b#
bx a#
bx `#
bx _#
bx ^#
bx ]#
bx \#
bx [#
bx Z#
bx Y#
bx X#
bx W#
bx V#
bx U#
bx T#
bx S#
b0 R#
bx Q#
bx P#
bx O#
bx N#
bx M#
bx L#
b0 K#
bx J#
bx I#
xH#
xG#
bx F#
bx E#
bx D#
bx C#
bx B#
bx A#
bx @#
bx ?#
bx >#
bx =#
bx <#
bx ;#
bx :#
bx 9#
bx 8#
bx 7#
x6#
x5#
bx 4#
bx 3#
bx 2#
bx 1#
bx 0#
bx /#
bx .#
bx -#
bx ,#
bx +#
bx *#
bx )#
bx (#
bx '#
bx &#
bx %#
bx $#
bx ##
bx "#
bx !#
bx ~"
bx }"
bx |"
bx {"
bx z"
bx y"
bx x"
bx w"
bx v"
bx u"
bx t"
bx s"
bx r"
bz q"
bz p"
bz o"
bx n"
bx m"
bx l"
bx k"
bx j"
bx i"
bx h"
bx g"
bx f"
bx e"
bx d"
bx c"
bx b"
bx a"
bx `"
bx _"
bx ^"
x]"
x\"
x["
bx Z"
xY"
xX"
xW"
xV"
xU"
bx T"
xS"
xR"
bx Q"
xP"
bx O"
bx N"
bx M"
bx L"
bx K"
xJ"
bx I"
bx H"
bx G"
bx F"
bx E"
bx D"
bx C"
bx B"
bx A"
bx @"
x?"
x>"
bx ="
bx <"
bx ;"
bx :"
bx 9"
bx 8"
bx 7"
bx 6"
bx 5"
x4"
bx 3"
bx 2"
x1"
bx 0"
bx /"
bx ."
bx -"
x,"
bx +"
x*"
x)"
bx ("
x'"
bx &"
bx %"
bx $"
bx #"
bx ""
bx !"
bx ~
bx }
bx |
bx {
bx z
bx y
bx x
bx w
bx v
bx u
bx t
bx s
bx r
bx q
bx p
bx o
bx n
bx m
bx l
bx k
xj
xi
bx h
bx g
bx f
bx e
bx d
bx c
bx b
xa
x`
bx _
x^
x]
x\
bx [
bx Z
bx Y
bx X
bx W
bx V
bx U
bx T
xS
xR
bx Q
bx P
bx O
bx N
bx M
bx L
bx K
bx J
bx I
bx H
bx G
bx F
bx E
bx D
bx C
xB
xA
x@
x?
bx >
bx =
bx <
bx ;
bx :
x9
x8
x7
bx 6
bx 5
bx 4
bx 3
bx 2
x1
x0
x/
bx .
x-
bx ,
x+
x*
bx )
x(
bx '
bx &
bx %
bx $
1#
bx "
0!
$end
#5000
1!
#10000
b0 m
b0 .#
b0 <#
b0 B#
b0 L#
b0 S#
b0 L
b0 ~
b0 @"
b0 x"
b0 N
b0 ""
b0 A"
b0 t"
0j
b0 Q
b0 !"
b0 5"
b0 B"
b0 M"
b0 y"
b0 }"
b0 C"
b0 N"
b0 v"
b0 ~"
1+
0*
b1111 .
b1111 h
b1111 Q#
b1111 0$
b1111 4$
b0 ^#
b0 &$
b0 *$
b0 `#
b0 D
b100 V
b100 ,#
b100 ;#
b100 >#
b0 n
b0 9#
b0 @#
b0 o
b0 7#
b0 ?#
0U"
0a
0S
0J"
09
0^
0>"
0?"
0B
0V"
0X"
0Y"
0]"
0\"
0W"
0R"
0["
0S"
b0 L"
b0 <
b0 {
b0 :"
b0 >
b0 |
b0 ;"
b0 |"
b0 {"
0P"
b0 O"
b0 _"
b0 Q"
b0 c"
b0 7"
b0 h"
b0 n"
b0 6"
b0 i"
b0 m"
b0 8"
b0 g"
b0 l"
b0 9"
b0 f"
b0 k"
b0 I"
b0 e"
b0 j"
b0 .$
b0 2$
0/
01
00
0@
05#
b0 U
b0 '#
b0 k#
b0 2#
b0 2
b0 3
b0 l
b0 -#
b0 /#
b0 W#
b0 e#
b0 c
b0 $#
b0 0#
b0 X#
b0 g#
b0 F
b0 +#
b0 m#
b0 4#
b0 O
b0 )#
b0 Y#
b0 _#
b0 3#
b0 X
b0 &#
b0 i#
b0 1#
07
06#
0(
0\
b0 ;
b0 z
b0 3"
b0 =
b0 y
b0 2"
0A
01"
b0 e
b0 s
b0 ##
b0 ("
b0 H
b0 x
b0 *#
b0 :#
b0 =#
b0 0"
b0 P
b0 v
b0 (#
b0 ."
b0 K
b0 w
b0 /"
b0 M
b0 u
b0 -"
b0 p
b0 r
b0 8#
b0 A#
b0 &"
b0 Y
b0 t
b0 %#
b0 +"
0i
0'"
0R
0,"
0`
0)"
08
04"
0]
0*"
0G#
b0 f
b0 $"
b0 F"
b0 d"
b0 C#
b0 I#
b0 I
b0 }
b0 ="
b0 u"
b0 D#
b0 J#
b0 &
b0 J
b0 O#
b0 U#
0-
b100000 "#
0!
0#
#15000
b0 z"
b0 C
b0 <"
b0 !#
b0 }#
b0 %$
b1000000000010100010011 d
b1000000000010100010011 F#
b1000000000010100010011 P#
b0 G
b0 E#
b0 M#
b0 T#
b0 V#
b0 E
b0 n#
b0 v#
0?
0w#
b0 b
b0 E"
b0 h#
b0 s#
b0 T
b0 l#
b0 |#
b0 "$
b0 u#
b0 k
b0 f#
b0 y#
b0 ~#
b0 r#
b0 W
b0 j#
b0 {#
b0 $$
b0 t#
b1000000000010100010011 ,
b1000000000010100010011 g
b1000000000010100010011 N#
b1000000000010100010011 1$
b1000000000010100010011 5$
b100000 "#
1!
#20000
0!
1#
#25000
b10 H"
b10 s"
b10 w"
b10 L
b10 ~
b10 @"
b10 x"
b0 q
b0 %"
b0 K"
b0 ^"
b0 `"
b0 Z
b0 #"
b0 D"
b0 T"
b0 b"
b0 G"
b0 Z"
b0 a"
b0 r"
1>"
1B
1["
b10 <
b10 {
b10 :"
b10 |"
b10011 Q"
b10011 c"
b1000000000000000000000 7"
b1000000000000000000000 h"
b1000000000000000000000 n"
b10 6"
b10 i"
b10 m"
b1010 8"
b1010 g"
b1010 l"
b1010 9"
b1010 f"
b1010 k"
b10 I"
b10 e"
b10 j"
b1 .$
b1 2$
b100 U
b100 '#
b100 k#
b100 2#
bx p
bx r
bx 8#
bx A#
bx &"
bx Y
bx t
bx %#
bx +"
b1000000000010100010011 f
b1000000000010100010011 $"
b1000000000010100010011 F"
b1000000000010100010011 d"
b1000000000010100010011 C#
b1000000000010100010011 I#
b100 &
b100 J
b100 O#
b100 U#
1-
1!
#30000
0!
#35000
b10 m
b10 .#
b10 <#
b10 B#
b10 L#
b10 S#
b10 .$
b10 2$
b10 n
b10 9#
b10 @#
b100000000000100010011 d
b100000000000100010011 F#
b100000000000100010011 P#
b1000 &
b1000 J
b1000 O#
b1000 U#
b100 G
b100 E#
b100 M#
b100 T#
b100 V#
b10 ;
b10 z
b10 3"
1A
11"
b1000000000010100010011 e
b1000000000010100010011 s
b1000000000010100010011 ##
b1000000000010100010011 ("
b10 K
b10 w
b10 /"
b0 p
b0 r
b0 8#
b0 A#
b0 &"
b0 Y
b0 t
b0 %#
b0 +"
bx X
bx &#
bx i#
bx 1#
b100 T
b100 l#
b100 |#
b100 "$
b100 u#
b100000000000100010011 ,
b100000000000100010011 g
b100000000000100010011 N#
b100000000000100010011 1$
b100000000000100010011 5$
1!
#40000
0!
#45000
b1 L
b1 ~
b1 @"
b1 x"
b1 H"
b1 s"
b1 w"
b10 ^#
b1010 D
b1 <
b1 {
b1 :"
b1 |"
b100000000000000000000 7"
b100000000000000000000 h"
b100000000000000000000 n"
b100000000000 6"
b100000000000 i"
b100000000000 m"
b10 8"
b10 g"
b10 l"
b10 9"
b10 f"
b10 k"
b1 I"
b1 e"
b1 j"
b11 .$
b11 2$
b1010000000000000011101111 d
b1010000000000000011101111 F#
b1010000000000000011101111 P#
1@
15#
b10 2
b10 3
b10 l
b10 -#
b10 /#
b10 W#
b10 e#
b1000000000010100010011 c
b1000000000010100010011 $#
b1000000000010100010011 0#
b1000000000010100010011 X#
b1000000000010100010011 g#
b0 X
b0 &#
b0 i#
b0 1#
b100000000000100010011 f
b100000000000100010011 $"
b100000000000100010011 F"
b100000000000100010011 d"
b100000000000100010011 C#
b100000000000100010011 I#
b100 I
b100 }
b100 ="
b100 u"
b100 D#
b100 J#
b1100 &
b1100 J
b1100 O#
b1100 U#
b1000 G
b1000 E#
b1000 M#
b1000 T#
b1000 V#
b1010000000000000011101111 ,
b1010000000000000011101111 g
b1010000000000000011101111 N#
b1010000000000000011101111 1$
b1010000000000000011101111 5$
bx W
bx j#
bx {#
bx $$
bx t#
1!
#50000
0!
#55000
b1000 N
b1000 ""
b1000 A"
b1000 t"
b11 G"
b11 Z"
b11 a"
b11 r"
b10 Z
b10 #"
b10 D"
b10 T"
b10 b"
1S
1?"
b10100 L
b10100 ~
b10100 @"
b10100 x"
1Y"
0["
b10100 H"
b10100 s"
b10100 w"
b1 m
b1 .#
b1 <#
b1 B#
b1 L#
b1 S#
b100 .$
b100 2$
b10100 <
b10100 {
b10100 :"
b10100 |"
b1101111 Q"
b1101111 c"
b1010000000000000000000000 7"
b1010000000000000000000000 h"
b1010000000000000000000000 n"
b10100 6"
b10100 i"
b10100 m"
b100000000000 8"
b100000000000 g"
b100000000000 l"
b1 9"
b1 f"
b1 k"
b10100 I"
b10100 e"
b10100 j"
b1000 V
b1000 ,#
b1000 ;#
b1000 >#
b1 n
b1 9#
b1 @#
b1010 z"
b10 C
b10 <"
b10 !#
b10 }#
b10 %$
b100000010000000110010011 d
b100000010000000110010011 F#
b100000010000000110010011 P#
b10000 &
b10000 J
b10000 O#
b10000 U#
b1100 G
b1100 E#
b1100 M#
b1100 T#
b1100 V#
b1010000000000000011101111 f
b1010000000000000011101111 $"
b1010000000000000011101111 F"
b1010000000000000011101111 d"
b1010000000000000011101111 C#
b1010000000000000011101111 I#
b1000 I
b1000 }
b1000 ="
b1000 u"
b1000 D#
b1000 J#
b1 ;
b1 z
b1 3"
b100000000000100010011 e
b100000000000100010011 s
b100000000000100010011 ##
b100000000000100010011 ("
b100 H
b100 x
b100 *#
b100 :#
b100 =#
b100 0"
b1 K
b1 w
b1 /"
1?
1w#
b1000000000010100010011 b
b1000000000010100010011 E"
b1000000000010100010011 h#
b1000000000010100010011 s#
b10 k
b10 f#
b10 y#
b10 ~#
b10 r#
b0 W
b0 j#
b0 {#
b0 $$
b0 t#
b100000010000000110010011 ,
b100000010000000110010011 g
b100000010000000110010011 N#
b100000010000000110010011 1$
b100000010000000110010011 5$
1!
#60000
0!
